{"name":"check reqres application accessed by user","id":"testing-different-request-on-reqres-application:check reqres application accessed by user","testSteps":[{"number":1,"description":"When User send GET request to user endpoint","duration":2995,"startTime":"2022-06-22T01:20:55.037+01:00[Europe/London]","result":"SUCCESS","precondition":false,"children":[{"number":2,"description":"Getting all user information","duration":2712,"startTime":"2022-06-22T01:20:55.304+01:00[Europe/London]","result":"SUCCESS","precondition":false,"children":[{"number":3,"description":"GET https://reqres.in/api/users?%2F%3Fpage%3D2\r\r","duration":0,"startTime":"2022-06-22T01:20:58.001+01:00[Europe/London]","result":"SUCCESS","restQuery":{"method":"GET","path":"https://reqres.in/api/users?%2F%3Fpage%3D2\r\r","content":"\r","contentType":"null","requestHeaders":"Accept\u003d*/*\r\r","requestCookies":"\r\r","responseHeaders":"Date: Wed, 22 Jun 2022 00:20:57 GMT\nContent-Type: application/json; charset\u003dutf-8\nTransfer-Encoding: chunked\nConnection: keep-alive\nX-Powered-By: Express\nAccess-Control-Allow-Origin: *\nEtag: W/\"3e4-2RLXvr5wTg9YQ6aH95CkYoFNuO8\"\nVia: 1.1 vegur\nCache-Control: max-age\u003d14400\nCF-Cache-Status: HIT\nAge: 509\nExpect-CT: max-age\u003d604800, report-uri\u003d\"https://report-uri.cloudflare.com/cdn-cgi/beacon/expect-ct\"\nReport-To: {\"endpoints\":[{\"url\":\"https:\\/\\/a.nel.cloudflare.com\\/report\\/v3?s\u003d9bwPN%2BKxlv5FsiLmeAZ86iLdr%2BuxxEyZG5AbfzUdVj5yPzaz1YbI7RCYP%2BZakQPlHXTaLdPXBlUzu50dIgQkDBnOlOCUSsVDlzuP645g4fEIdvVGK%2BTZ9UrRzQ%3D%3D\"}],\"group\":\"cf-nel\",\"max_age\":604800}\nNEL: {\"success_fraction\":0,\"report_to\":\"cf-nel\",\"max_age\":604800}\nVary: Accept-Encoding\nServer: cloudflare\nCF-RAY: 71f0d2355b29e654-LHR\nContent-Encoding: gzip\r","responseCookies":"\r","responseBody":"{\n    \"page\": 1,\n    \"per_page\": 6,\n    \"total\": 12,\n    \"total_pages\": 2,\n    \"data\": [\n        {\n            \"id\": 1,\n            \"email\": \"george.bluth@reqres.in\",\n            \"first_name\": \"George\",\n            \"last_name\": \"Bluth\",\n            \"avatar\": \"https://reqres.in/img/faces/1-image.jpg\"\n        },\n        {\n            \"id\": 2,\n            \"email\": \"janet.weaver@reqres.in\",\n            \"first_name\": \"Janet\",\n            \"last_name\": \"Weaver\",\n            \"avatar\": \"https://reqres.in/img/faces/2-image.jpg\"\n        },\n        {\n            \"id\": 3,\n            \"email\": \"emma.wong@reqres.in\",\n            \"first_name\": \"Emma\",\n            \"last_name\": \"Wong\",\n            \"avatar\": \"https://reqres.in/img/faces/3-image.jpg\"\n        },\n        {\n            \"id\": 4,\n            \"email\": \"eve.holt@reqres.in\",\n            \"first_name\": \"Eve\",\n            \"last_name\": \"Holt\",\n            \"avatar\": \"https://reqres.in/img/faces/4-image.jpg\"\n        },\n        {\n            \"id\": 5,\n            \"email\": \"charles.morris@reqres.in\",\n            \"first_name\": \"Charles\",\n            \"last_name\": \"Morris\",\n            \"avatar\": \"https://reqres.in/img/faces/5-image.jpg\"\n        },\n        {\n            \"id\": 6,\n            \"email\": \"tracey.ramos@reqres.in\",\n            \"first_name\": \"Tracey\",\n            \"last_name\": \"Ramos\",\n            \"avatar\": \"https://reqres.in/img/faces/6-image.jpg\"\n        }\n    ],\n    \"support\": {\n        \"url\": \"https://reqres.in/#support-heading\",\n        \"text\": \"To keep ReqRes free, contributions towards server costs are appreciated!\"\n    }\n}","statusCode":200},"precondition":false}]}]},{"number":4,"description":"Then User must get a valid status code 200","duration":16,"startTime":"2022-06-22T01:20:58.032+01:00[Europe/London]","result":"SUCCESS","precondition":false}],"userStory":{"id":"testing-different-request-on-reqres-application","storyName":"Testing different request on reqres application","path":"user.feature","type":"feature"},"featureTag":{"name":"Testing different request on reqres application","type":"feature"},"title":"check reqres application accessed by user","description":"","tags":[{"name":"Testing different request on reqres application","type":"feature"}],"startTime":"2022-06-22T01:20:54.927+01:00[Europe/London]","duration":3121,"projectKey":"","manual":false,"result":"SUCCESS"}